有应用被添加org.malwarebytes.antimalware   MD5=b9f512a4f7aa9e5987efc153ab645bb5    installer是com.android.vending    installerMD5=790f425a6cd64f030885d4a2ff328e6b   安装时间:2017-03-13 07:05:59

isRoot = true版本较高，无安装log
包名:com.google.android.googlequicksearchbox  appName:Appli Google   MD5:8bbce42ac9a172054005da64d74b79c5
包名:com.mycolorscreen.themer  appName:Lanceur d'applications   MD5:b72bf7ab03a7415f79c56fd3e1cec83d
包名:com.google.android.gms  appName:Services Google Play   MD5:818d4fe9f4280e54f10315f054c96104
包名:com.google.android.googlequicksearchbox  appName:Appli Google   MD5:8bbce42ac9a172054005da64d74b79c5
包名:com.touchtype.swiftkey  appName:Clavier SwiftKey   MD5:d8371b3e9eb216e68fbec6fa3db0edad
包名:net.oneplus.odm.provider  appName:Insight Provider   MD5:c1a8a9bade65f5fb860db97ff3fbb62d
包名:com.google.android.apps.messaging  appName:Messages   MD5:86154a3b1ce8b9185a7e70751801cf81
包名:com.android.dialer  appName:Téléphone   MD5:f990638905fe41c591d64f9666063b22
包名:com.facebook.orca  appName:Messenger   MD5:b9f512a4f7aa9e5987efc153ab645bb5
包名:com.facebook.katana  appName:Facebook   MD5:c85cc722757cbb5a11b3886515955d70
包名:com.snapchat.android  appName:Snapchat   MD5:2ab42a7a0834b256f65c1a8e09dc21c1
包名:com.google.android.music  appName:Google Play Musique   MD5:2c6e0c47a3b74ccd5cceafeb41c18c3d
包名:com.google.android.apps.plus  appName:Google+   MD5:ba8048416475fb19f04edee9172569cb
包名:com.soundcloud.android  appName:SoundCloud   MD5:7a6a65fa23f06619dac2089eb8b7289a
包名:mobi.societegenerale.mobile.lappli  appName:Société Générale   MD5:4c0192dffda2cf0a4ec6f02789a1ef2e
包名:mobi.societegenerale.mobile.lappli  appName:Société Générale   MD5:4c0192dffda2cf0a4ec6f02789a1ef2e
包名:com.google.android.apps.maps  appName:Maps   MD5:e00a4447d2c3be75e4a6bd13b997ac76
包名:com.google.android.talk  appName:Hangouts   MD5:a5fd62ad7b75a62619ae355e4ffb3039
包名:com.versobit.kmark.xhangouts  appName:XHangouts   MD5:4ca68d5b9877e82302d9dfdb15fa9909
包名:tw.fatminmin.xposed.minminguard  appName:MinMinGuard   MD5:efad4267e9c18944ef40324780daff5d
包名:com.accuweather.android  appName:AccuWeather   MD5:fce2c6368bee7ab0781734a859f446c4
包名:com.facebook.katana  appName:Facebook   MD5:c85cc722757cbb5a11b3886515955d70
包名:com.google.android.youtube  appName:YouTube   MD5:48b4c1392a70949138155c42ac32ecfd
包名:com.android.vending  appName:Google Play Store   MD5:790f425a6cd64f030885d4a2ff328e6b
包名:com.cleanmaster.security.stubborntrjkiller  appName:Stubborn Trojan Killer   MD5:025d98ad6d66b49990fd7b73c97812d4
包名:com.cleanmaster.security.stubborntrjkiller  appName:Stubborn Trojan Killer   MD5:025d98ad6d66b49990fd7b73c97812d4
包名:com.google.android.partnersetup  appName:Configuration des partenaires Google   MD5:95ce9d17caa6ed556da04a4ed23da861
包名:com.android.musicfx  appName:MusicFX   MD5:5893c49fc885de67afb7de7454f09080
包名:com.facebook.orca  appName:Messenger   MD5:b9f512a4f7aa9e5987efc153ab645bb5


内核版本: 3.18.20-perf+     platform:msm8996

model=ONEPLUS A3003   brand=OnePlus   osver=6.0.1

ps
USER      PID   PPID  VSIZE  RSS   WCHAN              PC  NAME
root      2     0     0      0       kthreadd 0000000000 S kthreadd
root      3     2     0      0     smpboot_th 0000000000 S ksoftirqd/0
root      7     2     0      0     rcu_gp_kth 0000000000 S rcu_preempt
root      8     2     0      0     rcu_gp_kth 0000000000 S rcu_sched
root      9     2     0      0     rcu_gp_kth 0000000000 S rcu_bh
root      10    2     0      0     nocb_leade 0000000000 S rcuop/0
root      11    2     0      0     nocb_leade 0000000000 S rcuos/0
root      12    2     0      0     nocb_leade 0000000000 S rcuob/0
root      13    2     0      0     smpboot_th 0000000000 S migration/0
root      14    2     0      0     smpboot_th 0000000000 S migration/1
root      15    2     0      0     smpboot_th 0000000000 S ksoftirqd/1
root      18    2     0      0     rcu_nocb_k 0000000000 S rcuop/1
root      19    2     0      0     rcu_nocb_k 0000000000 S rcuos/1
root      20    2     0      0     rcu_nocb_k 0000000000 S rcuob/1
root      21    2     0      0     smpboot_th 0000000000 S migration/2
root      22    2     0      0     smpboot_th 0000000000 S ksoftirqd/2
root      25    2     0      0     nocb_leade 0000000000 S rcuop/2
root      26    2     0      0     nocb_leade 0000000000 S rcuos/2
root      27    2     0      0     nocb_leade 0000000000 S rcuob/2
root      28    2     0      0     smpboot_th 0000000000 S migration/3
root      29    2     0      0     smpboot_th 0000000000 S ksoftirqd/3
root      32    2     0      0     rcu_nocb_k 0000000000 S rcuop/3
root      33    2     0      0     rcu_nocb_k 0000000000 S rcuos/3
root      34    2     0      0     rcu_nocb_k 0000000000 S rcuob/3
root      35    2     0      0     rescuer_th 0000000000 S khelper
root      36    2     0      0     rescuer_th 0000000000 S netns
root      37    2     0      0     rescuer_th 0000000000 S perf
root      38    2     0      0     rescuer_th 0000000000 S smd_channel_clo
root      39    2     0      0     rescuer_th 0000000000 S glink_tx
root      40    2     0      0     rescuer_th 0000000000 S glink_tx
root      41    2     0      0     rescuer_th 0000000000 S glink_tx
root      42    2     0      0     rescuer_th 0000000000 S glink_tx
root      43    2     0      0     rescuer_th 0000000000 S glink_tx
root      44    2     0      0     watchdog_k 0000000000 S msm_watchdog
root      46    2     0      0     rescuer_th 0000000000 S rpm_requests
root      47    2     0      0     kthread_wo 0000000000 S smem_native_mps
root      48    2     0      0     rescuer_th 0000000000 S glink_tx
root      49    2     0      0     kthread_wo 0000000000 S smem_native_lpa
root      50    2     0      0     rescuer_th 0000000000 S glink_tx
root      51    2     0      0     kthread_wo 0000000000 S smem_native_dsp
root      52    2     0      0     rescuer_th 0000000000 S glink_tx
root      53    2     0      0     kthread_wo 0000000000 S smem_native_rpm
root      54    2     0      0     rescuer_th 0000000000 S glink_tx
root      56    2     0      0     rescuer_th 0000000000 S deferwq
root      57    2     0      0     msm_mpm_wo 0000000000 D kworker/u8:1
root      58    2     0      0     irq_thread 0000000000 S irq/169-cpr3
root      59    2     0      0     irq_thread 0000000000 S irq/170-cpr3_ce
root      60    2     0      0     irq_thread 0000000000 S irq/171-cpr3
root      61    2     0      0     rescuer_th 0000000000 S mpm
root      85    2     0      0     rescuer_th 0000000000 S writeback
root      86    2     0      0     rescuer_th 0000000000 S crypto
root      87    2     0      0     rescuer_th 0000000000 S bioset
root      88    2     0      0     rescuer_th 0000000000 S kblockd
root      89    2     0      0     rescuer_th 0000000000 S op_rf_cable_wqu
root      90    2     0      0     ion_heap_d 0000000000 S system
root      91    2     0      0     ion_heap_d 0000000000 S secure_heap
root      92    2     0      0     rescuer_th 0000000000 S ipa_power_mgmt
root      93    2     0      0     rescuer_th 0000000000 S sps_ipa_power_m
root      95    2     0      0     rescuer_th 0000000000 S ipawq14
root      96    2     0      0     rescuer_th 0000000000 S iparepwq14
root      98    2     0      0     rescuer_th 0000000000 S ipawq47
root      99    2     0      0     rescuer_th 0000000000 S iparepwq47
root      100   2     0      0     rescuer_th 0000000000 S ipawq13
root      101   2     0      0     rescuer_th 0000000000 S iparepwq13
root      102   2     0      0     rescuer_th 0000000000 S ipa_rm_wq
root      103   2     0      0     rescuer_th 0000000000 S ipa_interrupt_w
root      104   2     0      0     irq_thread 0000000000 S irq/190-arm-smm
root      105   2     0      0     irq_thread 0000000000 S irq/195-arm-smm
root      106   2     0      0     irq_thread 0000000000 S irq/200-arm-smm
root      107   2     0      0     irq_thread 0000000000 S irq/205-arm-smm
root      108   2     0      0     irq_thread 0000000000 S irq/217-arm-smm
root      109   2     0      0     irq_thread 0000000000 S irq/222-arm-smm
root      110   2     0      0     irq_thread 0000000000 S irq/227-arm-smm
root      111   2     0      0     irq_thread 0000000000 S irq/232-arm-smm
root      112   2     0      0     irq_thread 0000000000 S irq/249-arm-smm
root      113   2     0      0     irq_thread 0000000000 S irq/256-arm-smm
root      114   2     0      0     irq_thread 0000000000 S irq/265-arm-smm
root      115   2     0      0     rescuer_th 0000000000 S devfreq_wq
root      116   2     0      0     rescuer_th 0000000000 S governor_msm_ad
root      118   2     0      0     rescuer_th 0000000000 S cfg80211
root      119   2     0      0     irq_thread 0000000000 S irq/95-bcl_vbat
root      120   2     0      0     irq_thread 0000000000 S irq/94-bcl_ibat
root      143   2     0      0     rescuer_th 0000000000 S power_off_alarm
root      144   2     0      0         kswapd 0000000000 S kswapd0
root      145   2     0      0     fsnotify_m 0000000000 S fsnotify_mark
root      164   2     0      0     rescuer_th 0000000000 S ad_calc_wq
root      165   2     0      0     rescuer_th 0000000000 S rot_commit_work
root      166   2     0      0     rescuer_th 0000000000 S rot_workq_0
root      167   2     0      0     rescuer_th 0000000000 S rot_workq_1
root      168   2     0      0     dsi_event_ 0000000000 D mdss_dsi_event
root      169   2     0      0     rescuer_th 0000000000 S mdss_dsi_dba
root      170   2     0      0     rescuer_th 0000000000 S glink_ssr_wq
root      171   2     0      0     rescuer_th 0000000000 S glink_lbsrv
root      172   2     0      0     rescuer_th 0000000000 S glink_xprt_wq
root      173   2     0      0     rescuer_th 0000000000 S IPCRTR_mpss_smd
root      174   2     0      0     rescuer_th 0000000000 S IPCRTR_lpass_sm
root      175   2     0      0     rescuer_th 0000000000 S IPCRTR
root      176   2     0      0     rescuer_th 0000000000 S IPCRTR_dsps_smd
root      177   2     0      0     rescuer_th 0000000000 S IPCRTR
root      178   2     0      0     rescuer_th 0000000000 S IPCRTR
root      179   2     0      0     rescuer_th 0000000000 S apr_driver
root      180   2     0      0     rescuer_th 0000000000 S glink_pkt_wq
root      181   2     0      0     rescuer_th 0000000000 S pacman_qmi_noti
root      182   2     0      0     rescuer_th 0000000000 S pacman_qmi_rx_w
root      183   2     0      0     rescuer_th 0000000000 S qmi_svc_event_w
root      184   2     0      0     rescuer_th 0000000000 S msm_ipc_router
root      185   2     0      0     rescuer_th 0000000000 S k_hsuart
root      186   2     0      0     kthread_wo 0000000000 S msm_serial_hs_0
root      187   2     0      0     kthread_wo 0000000000 S msm_serial_hs_0
root      188   2     0      0     add_hwgene 0000000000 S hwrng
root      190   2     0      0     rescuer_th 0000000000 S diag_real_time_
root      191   2     0      0     rescuer_th 0000000000 S diag_wq
root      192   2     0      0     rescuer_th 0000000000 S DIAG_USB_diag
root      193   2     0      0     rescuer_th 0000000000 S diag_cntl_wq
root      194   2     0      0     rescuer_th 0000000000 S diag_dci_wq
root      195   2     0      0     rescuer_th 0000000000 S DIAG_SMD_MODEM_
root      196   2     0      0     rescuer_th 0000000000 S DIAG_SMD_MODEM_
root      197   2     0      0     rescuer_th 0000000000 S DIAG_SMD_MODEM_
root      198   2     0      0     rescuer_th 0000000000 S DIAG_SMD_MODEM_
root      199   2     0      0     rescuer_th 0000000000 S DIAG_SMD_MODEM_
root      200   2     0      0     rescuer_th 0000000000 S DIAG_SMD_LPASS_
root      201   2     0      0     rescuer_th 0000000000 S DIAG_SMD_LPASS_
root      202   2     0      0     rescuer_th 0000000000 S DIAG_SMD_LPASS_
root      203   2     0      0     rescuer_th 0000000000 S DIAG_SMD_LPASS_
root      204   2     0      0     rescuer_th 0000000000 S DIAG_SMD_LPASS_
root      205   2     0      0     rescuer_th 0000000000 S DIAG_SMD_WCNSS_
root      206   2     0      0     rescuer_th 0000000000 S DIAG_SMD_WCNSS_
root      207   2     0      0     rescuer_th 0000000000 S DIAG_SMD_WCNSS_
root      208   2     0      0     rescuer_th 0000000000 S DIAG_SMD_WCNSS_
root      209   2     0      0     rescuer_th 0000000000 S DIAG_SMD_WCNSS_
root      210   2     0      0     rescuer_th 0000000000 S DIAG_SMD_SENSOR
root      211   2     0      0     rescuer_th 0000000000 S DIAG_SMD_SENSOR
root      212   2     0      0     rescuer_th 0000000000 S DIAG_SMD_SENSOR
root      213   2     0      0     rescuer_th 0000000000 S DIAG_SMD_SENSOR
root      214   2     0      0     rescuer_th 0000000000 S DIAG_SMD_SENSOR
root      215   2     0      0     rescuer_th 0000000000 S DIAG_SOCKMODEM_
root      216   2     0      0     rescuer_th 0000000000 S DIAG_SOCKMODEM_
root      217   2     0      0     rescuer_th 0000000000 S DIAG_SOCKMODEM_
root      218   2     0      0     rescuer_th 0000000000 S DIAG_SOCKMODEM_
root      219   2     0      0     rescuer_th 0000000000 S DIAG_SOCKMODEM_
root      220   2     0      0     rescuer_th 0000000000 S DIAG_SOCKLPASS_
root      221   2     0      0     rescuer_th 0000000000 S DIAG_SOCKLPASS_
root      222   2     0      0     rescuer_th 0000000000 S DIAG_SOCKLPASS_
root      223   2     0      0     rescuer_th 0000000000 S DIAG_SOCKLPASS_
root      224   2     0      0     rescuer_th 0000000000 S DIAG_SOCKLPASS_
root      225   2     0      0     rescuer_th 0000000000 S DIAG_SOCKWCNSS_
root      226   2     0      0     rescuer_th 0000000000 S DIAG_SOCKWCNSS_
root      227   2     0      0     rescuer_th 0000000000 S DIAG_SOCKWCNSS_
root      228   2     0      0     rescuer_th 0000000000 S DIAG_SOCKWCNSS_
root      229   2     0      0     rescuer_th 0000000000 S DIAG_SOCKWCNSS_
root      230   2     0      0     rescuer_th 0000000000 S DIAG_SOCKSENSOR
root      231   2     0      0     rescuer_th 0000000000 S DIAG_SOCKSENSOR
root      232   2     0      0     rescuer_th 0000000000 S DIAG_SOCKSENSOR
root      233   2     0      0     rescuer_th 0000000000 S DIAG_SOCKSENSOR
root      234   2     0      0     rescuer_th 0000000000 S DIAG_SOCKSENSOR
root      235   2     0      0     rescuer_th 0000000000 S DIAG_CNTL_SOCKE
root      236   2     0      0     rescuer_th 0000000000 S kgsl-workqueue
root      237   2     0      0     rescuer_th 0000000000 S kgsl-mementry
root      238   2     0      0     rescuer_th 0000000000 S qcrypto_seq_res
root      259   2     0      0     scsi_error 0000000000 S scsi_eh_0
root      260   2     0      0     rescuer_th 0000000000 S scsi_tmf_0
root      261   2     0      0     rescuer_th 0000000000 S ufs_pm_qos_0
root      262   2     0      0     rescuer_th 0000000000 S ufs_clkscaling_
root      263   2     0      0     kthread_wo 0000000000 S spi0
root      266   2     0      0     rescuer_th 0000000000 S bond0
root      267   2     0      0     rescuer_th 0000000000 S usbnet
root      268   2     0      0     rescuer_th 0000000000 S sharedmem_qmi_w
root      269   2     0      0     rescuer_th 0000000000 S qmi_hndl0000000
root      274   2     0      0     rescuer_th 0000000000 S k_gserial
root      275   2     0      0     rescuer_th 0000000000 S k_ipa_usb
root      276   2     0      0     rescuer_th 0000000000 S uether
root      277   2     0      0     rescuer_th 0000000000 S k_gbridge
root      278   2     0      0     rescuer_th 0000000000 S tpd_probe_optim
root      279   2     0      0     rescuer_th 0000000000 S tc_probe_optimi
root      280   2     0      0     irq_thread 0000000000 S irq/384-soc:fpc
root      281   2     0      0     rescuer_th 0000000000 S msm_vidc_worker
root      282   2     0      0     rescuer_th 0000000000 S pm_workerq_venu
root      283   2     0      0     irq_thread 0000000000 S irq/206-arm-smm
root      284   2     0      0     irq_thread 0000000000 S irq/207-arm-smm
root      285   2     0      0     irq_thread 0000000000 S irq/208-arm-smm
root      286   2     0      0     irq_thread 0000000000 S irq/209-arm-smm
root      287   2     0      0     rescuer_th 0000000000 S msm_cci_wq
root      288   2     0      0     rescuer_th 0000000000 S msm_cci_wq
root      289   2     0      0     diag_socke 0000000000 S kworker/u8:5
root      290   2     0      0     diag_socke 0000000000 S kworker/u8:6
root      292   2     0      0     diag_socke 0000000000 S kworker/u8:8
root      294   2     0      0     rescuer_th 0000000000 S msm_cpp_workque
root      295   2     0      0     irq_thread 0000000000 S irq/144-batt-mi
root      296   2     0      0     sensor_sys 0000000000 S therm_core:noti
root      297   2     0      0     rescuer_th 0000000000 S update_pre_capa
root      299   2     0      0     rescuer_th 0000000000 S synaptics_wq
root      300   2     0      0     rescuer_th 0000000000 S synaptics_repor
root      301   2     0      0     rescuer_th 0000000000 S get_base_report
root      302   2     0      0     sensor_sys 0000000000 S therm_core:noti
root      303   2     0      0     sensor_sys 0000000000 S therm_core:noti
root      304   2     0      0     sensor_sys 0000000000 S therm_core:noti
root      305   2     0      0     sensor_sys 0000000000 S therm_core:noti
root      306   2     0      0     sensor_sys 0000000000 S therm_core:noti
root      307   2     0      0     sensor_sys 0000000000 S therm_core:noti
root      308   2     0      0     sensor_sys 0000000000 S therm_core:noti
root      309   2     0      0     sensor_sys 0000000000 S therm_core:noti
root      310   2     0      0     sensor_sys 0000000000 S therm_core:noti
root      311   2     0      0     sensor_sys 0000000000 S therm_core:noti
root      312   2     0      0     sensor_sys 0000000000 S therm_core:noti
root      313   2     0      0     sensor_sys 0000000000 S therm_core:noti
root      314   2     0      0     sensor_sys 0000000000 S therm_core:noti
root      315   2     0      0     irq_thread 0000000000 S irq/153-tsens_i
root      316   2     0      0     irq_thread 0000000000 S irq/154-tsens_c
root      317   2     0      0     sensor_sys 0000000000 S therm_core:noti
root      318   2     0      0     sensor_sys 0000000000 S therm_core:noti
root      319   2     0      0     sensor_sys 0000000000 S therm_core:noti
root      320   2     0      0     sensor_sys 0000000000 S therm_core:noti
root      321   2     0      0     sensor_sys 0000000000 S therm_core:noti
root      322   2     0      0     sensor_sys 0000000000 S therm_core:noti
root      323   2     0      0     sensor_sys 0000000000 S therm_core:noti
root      324   2     0      0     sensor_sys 0000000000 S therm_core:noti
root      325   2     0      0     irq_thread 0000000000 S irq/286-tsens_i
root      326   2     0      0     irq_thread 0000000000 S irq/287-tsens_c
root      327   2     0      0     sensor_sys 0000000000 S therm_core:noti
root      328   2     0      0     sensor_sys 0000000000 S therm_core:noti
root      329   2     0      0     sensor_sys 0000000000 S therm_core:noti
root      330   2     0      0     sensor_sys 0000000000 S therm_core:noti
root      331   2     0      0     sensor_sys 0000000000 S therm_core:noti
root      332   2     0      0     sensor_sys 0000000000 S therm_core:noti
root      333   2     0      0     sensor_sys 0000000000 S therm_core:noti
root      334   2     0      0     rescuer_th 0000000000 S dm_bufio_cache
root      335   2     0      0     cpufreq_in 0000000000 S cfinteractive
root      336   2     0      0     rescuer_th 0000000000 S binder
root      337   2     0      0     irq_thread 0000000000 S irq/148-qpnp_sc
root      338   2     0      0     rescuer_th 0000000000 S vibthread
root      339   2     0      0     irq_thread 0000000000 S irq/10-spdm_bw_
root      340   2     0      0     rescuer_th 0000000000 S oem_key_dump
root      341   2     0      0     rescuer_th 0000000000 S tfa98xx
root      342   2     0      0     rescuer_th 0000000000 S ipv6_addrconf
root      343   2     0      0     rfcomm_run 0000000000 S krfcommd
root      344   2     0      0     irq_thread 0000000000 S irq/604-adsp
root      345   2     0      0     rescuer_th 0000000000 S sysmon_wq
root      346   2     0      0     rescuer_th 0000000000 S adsp
root      347   2     0      0     rescuer_th 0000000000 S sys_mon
root      348   2     0      0     irq_thread 0000000000 S irq/636-slpi
root      349   2     0      0     rescuer_th 0000000000 S slpi
root      350   2     0      0     rescuer_th 0000000000 S sys_mon
root      351   2     0      0     irq_thread 0000000000 S irq/572-modem
root      352   2     0      0     rescuer_th 0000000000 S kgsl-events
root      353   2     0      0     rescuer_th 0000000000 S kgsl_devfreq_wq
root      354   2     0      0     irq_thread 0000000000 S irq/80-hs_phy_i
root      355   2     0      0     irq_thread 0000000000 S irq/81-ss_phy_i
root      356   2     0      0     irq_thread 0000000000 S irq/82-msm_dwc3
root      358   2     0      0     rescuer_th 0000000000 S usb_bam_wq
root      360   2     0      0     sensor_sys 0000000000 S therm_core:noti
root      361   2     0      0     irq_thread 0000000000 S irq/99-chg-erro
root      362   2     0      0     irq_thread 0000000000 S irq/105-chg-tap
root      363   2     0      0     irq_thread 0000000000 S irq/106-chg-tcc
root      364   2     0      0     irq_thread 0000000000 S irq/104-chg-rec
root      365   2     0      0     irq_thread 0000000000 S irq/103-chg-p2f
root      366   2     0      0     irq_thread 0000000000 S irq/107-batt-ho
root      367   2     0      0     irq_thread 0000000000 S irq/108-batt-wa
root      368   2     0      0     irq_thread 0000000000 S irq/110-batt-co
root      369   2     0      0     irq_thread 0000000000 S irq/109-batt-co
root      370   2     0      0     irq_thread 0000000000 S irq/113-batt-mi
root      371   2     0      0     irq_thread 0000000000 S irq/112-batt-lo
root      372   2     0      0     irq_thread 0000000000 S irq/115-usbin-u
root      373   2     0      0     irq_thread 0000000000 S irq/116-usbin-o
root      374   2     0      0     irq_thread 0000000000 S irq/117-usbin-s
root      375   2     0      0     irq_thread 0000000000 S irq/120-aicl-do
root      376   2     0      0     irq_thread 0000000000 S irq/118-otg-fai
root      377   2     0      0     irq_thread 0000000000 S irq/119-otg-oc
root      378   2     0      0     irq_thread 0000000000 S irq/121-usbid-c
root      379   2     0      0     irq_thread 0000000000 S irq/122-dcin-uv
root      380   2     0      0     irq_thread 0000000000 S irq/124-power-o
root      381   2     0      0     irq_thread 0000000000 S irq/125-temp-sh
root      382   2     0      0     irq_thread 0000000000 S irq/126-wdog-ti
root      383   2     0      0     rescuer_th 0000000000 S fusb301_wqueue
root      384   2     0      0     irq_thread 0000000000 S irq/732-fusb301
root      385   2     0      0     rescuer_th 0000000000 S rq_stats
root      386   2     0      0     events_not 0000000000 S msm_perf:events
root      387   2     0      0     irq_thread 0000000000 S irq/233-arm-smm
root      388   2     0      0     irq_thread 0000000000 S irq/234-arm-smm
root      389   2     0      0     irq_thread 0000000000 S irq/235-arm-smm
root      390   2     0      0     irq_thread 0000000000 S irq/236-arm-smm
root      391   2     0      0     irq_thread 0000000000 S irq/237-arm-smm
root      392   2     0      0     irq_thread 0000000000 S irq/238-arm-smm
root      393   2     0      0     irq_thread 0000000000 S irq/239-arm-smm
root      394   2     0      0     irq_thread 0000000000 S irq/240-arm-smm
root      395   2     0      0     rescuer_th 0000000000 S sb-1
root      396   2     0      0     ngd_slim_r 0000000000 D ngd_rx_thread1
root      397   2     0      0     ngd_notify 0000000000 D ngd_notify_sl1
root      398   2     0      0     irq_thread 0000000000 S irq/414-synapti
root      399   2     0      0     rescuer_th 0000000000 S k_bam_data
root      400   2     0      0     rescuer_th 0000000000 S f_mtp
root      402   2     0      0     do_samplin 0000000000 D msm-core:sampli
root      403   2     0      0     do_hotplug 0000000000 S msm_thermal:hot
root      404   2     0      0     do_freq_mi 0000000000 S msm_thermal:fre
root      405   2     0      0     do_thermal 0000000000 S msm_thermal:the
root      406   2     0      0     sensor_sys 0000000000 S therm_core:noti
root      407   2     0      0     sensor_sys 0000000000 S therm_core:noti
root      408   2     0      0     sensor_sys 0000000000 S therm_core:noti
root      409   2     0      0     sensor_sys 0000000000 S therm_core:noti
root      410   2     0      0     sensor_sys 0000000000 S therm_core:noti
root      411   2     0      0     sensor_sys 0000000000 S therm_core:noti
root      412   2     0      0     sensor_sys 0000000000 S therm_core:noti
root      413   2     0      0     sensor_sys 0000000000 S therm_core:noti
root      414   2     0      0     irq_thread 0000000000 S irq/168-lmh-int
root      415   2     0      0     boost_mig_ 0000000000 S boost_sync/0
root      416   2     0      0     boost_mig_ 0000000000 S boost_sync/1
root      417   2     0      0     boost_mig_ 0000000000 S boost_sync/2
root      418   2     0      0     boost_mig_ 0000000000 S boost_sync/3
root      419   2     0      0     rescuer_th 0000000000 S ipa_A7_svc
root      420   2     0      0     rescuer_th 0000000000 S qmi_hndl0000000
root      421   2     0      0     rescuer_th 0000000000 S clnt_req
root      422   2     0      0     rescuer_th 0000000000 S clnt_resp
root      423   2     0      0     rescuer_th 0000000000 S clnt_req
root      424   2     0      0     irq_thread 0000000000 S irq/421-synapti
root      430   2     0      0     kjournald2 0000000000 S jbd2/sde20-8
root      431   2     0      0     rescuer_th 0000000000 S ext4-rsv-conver
root      435   2     0      0     kjournald2 0000000000 S jbd2/sda3-8
root      436   2     0      0     rescuer_th 0000000000 S ext4-rsv-conver
root      437   2     0      0     kjournald2 0000000000 S jbd2/sda2-8
root      438   2     0      0     rescuer_th 0000000000 S ext4-rsv-conver
root      439   2     0      0     kjournald2 0000000000 S jbd2/sde12-8
root      440   2     0      0     rescuer_th 0000000000 S ext4-rsv-conver
root      441   1     27272  14564 sigsuspend 0000000000 S /system/bin/logd
root      447   2     0      0     kauditd_th 0000000000 S kauditd
root      477   2     0      0     rescuer_th 0000000000 S lpass_IPCRTR
root      478   2     0      0     rescuer_th 0000000000 S LOOPBACK
root      479   2     0      0     rescuer_th 0000000000 S qmi_hndl0000000
root      480   2     0      0     irq_thread 0000000000 S irq/241-arm-smm
root      481   2     0      0     kthread_wo 0000000000 S msm_slim_qmi_cl
root      482   2     0      0     rescuer_th 0000000000 S qmi_hndl0000000
root      483   2     0      0     irq_thread 0000000000 S irq/343-wcd9xxx
root      484   2     0      0     rescuer_th 0000000000 S dsps_IPCRTR
root      485   2     0      0     rescuer_th 0000000000 S LOOPBACK
root      486   2     0      0     rescuer_th 0000000000 S qmi_hndl0000000
root      498   2     0      0     rescuer_th 0000000000 S qmi_hndl0000000
root      612   2     0      0     irq_thread 0000000000 S irq/196-arm-smm
root      613   2     0      0     irq_thread 0000000000 S irq/197-arm-smm
root      697   2     0      0     irq_thread 0000000000 S irq/218-arm-smm
root      698   2     0      0     irq_thread 0000000000 S irq/223-arm-smm
root      699   2     0      0     irq_thread 0000000000 S irq/219-arm-smm
root      700   2     0      0     irq_thread 0000000000 S irq/224-arm-smm
root      701   2     0      0     rescuer_th 0000000000 S kdmflush
root      702   2     0      0     rescuer_th 0000000000 S bioset
root      705   2     0      0     rescuer_th 0000000000 S mpss_IPCRTR
root      706   2     0      0     rescuer_th 0000000000 S LOOPBACK
root      707   2     0      0     rescuer_th 0000000000 S SSM_RTR_MODEM_A
root      709   2     0      0     rescuer_th 0000000000 S qmi_hndl0000000
root      716   2     0      0     rescuer_th 0000000000 S qmi_hndl0000000
root      718   2     0      0     rescuer_th 0000000000 S DS
root      719   2     0      0     rescuer_th 0000000000 S DATA1
root      720   2     0      0     rescuer_th 0000000000 S DATA2
root      721   2     0      0     rescuer_th 0000000000 S DATA3
root      722   2     0      0     rescuer_th 0000000000 S DATA4
root      723   2     0      0     rescuer_th 0000000000 S DATA11
root      735   2     0      0     kjournald2 0000000000 S jbd2/dm-0-8
root      736   2     0      0     rescuer_th 0000000000 S ext4-rsv-conver
root      740   2     0      0     sleep_thre 0000000000 S file-storage
root      772   2     0      0     loop_threa 0000000000 S loop0
root      775   2     0      0     kjournald2 0000000000 S jbd2/loop0-8
root      776   2     0      0     rescuer_th 0000000000 S ext4-rsv-conver
root      1149  841   64672  4104  binder_thr 0000000000 S xposed_service_app
u0_a28    1280  841   2448520 154948 SyS_epoll_ 0000000000 S com.google.android.googlequicksearchbox:search
root      1304  841   5660   1420  __skb_recv 0000000000 S logcat
root      1305  1304  60024  3688   pipe_wait 0000000000 S xposed_logcat
root      1569  2     0      0     rescuer_th 0000000000 S ipawq48
root      1570  2     0      0     rescuer_th 0000000000 S iparepwq48
root      1735  842   37136  2492  futex_wait 0000000000 S xposed_zygote_service
root      1894  2     0      0     wlan_loggi 0000000000 S wlan_logging_th
root      1895  2     0      0     VosMCThrea 0000000000 S VosMCThread
root      1896  2     0      0     VosTXThrea 0000000000 S VosTXThread
root      1897  2     0      0     VosRXThrea 0000000000 S VosRXThread
root      1898  2     0      0     VosTlshimR 0000000000 S VosTlshimRxThre
u0_a8     1908  841   1653580 74472 SyS_epoll_ 0000000000 S android.process.media
u0_a2     2281  841   1633768 64896 SyS_epoll_ 0000000000 S android.process.acore
u0_a89    2347  841   2415900 241192 SyS_epoll_ 0000000000 S com.mycolorscreen.themer
u0_a10    2401  841   2648816 165576 SyS_epoll_ 0000000000 S com.google.android.gms
u0_a28    2939  841   2358328 126500 SyS_epoll_ 0000000000 S com.google.android.googlequicksearchbox:interactor
u0_a78    2949  841   1900740 169136 SyS_epoll_ 0000000000 S com.touchtype.swiftkey
u0_a17    3180  841   1621444 55020 SyS_epoll_ 0000000000 S net.oneplus.odm.provider
u0_a10    3337  841   1818476 134696 SyS_epoll_ 0000000000 S com.google.android.gms.persistent
u0_a61    3462  841   1653984 63220 SyS_epoll_ 0000000000 S com.google.android.apps.messaging:rcs
root      3977  2     0      0     worker_thr 0000000000 S kworker/2:0H
root      4091  2     0      0     irq_thread 0000000000 S irq/21-408000.q
root      4129  2     0      0     notify_use 0000000000 S wrkld_notify
u0_a7     4146  841   1672152 117320 SyS_epoll_ 0000000000 S com.android.dialer
root      4668  2     0      0     worker_thr 0000000000 S kworker/1:2H
root      5585  2     0      0     worker_thr 0000000000 S kworker/u9:3
u0_a207   8865  842   2016312 194504 SyS_epoll_ 0000000000 S com.facebook.orca
root      9430  2     0      0     worker_thr 0000000000 S kworker/0:2H
root      9482  2     0      0     worker_thr 0000000000 S kworker/3:1H
root      9785  2     0      0     irq_thread 0000000000 S irq/201-arm-smm
root      9786  2     0      0     irq_thread 0000000000 S irq/228-arm-smm
root      10917 2     0      0     worker_thr 0000000000 S kworker/2:6
u0_a181   12039 842   1418036 188504 SyS_epoll_ 0000000000 S com.facebook.katana
u0_a97    13726 842   1857812 101876 SyS_epoll_ 0000000000 S com.snapchat.android
u0_a10    14125 841   1631988 60456 SyS_epoll_ 0000000000 S com.google.process.gapps
u0_a63    14139 841   1832084 92752 SyS_epoll_ 0000000000 S com.google.android.music:main
root      14680 2     0      0     worker_thr 0000000000 S kworker/0:1H
root      16671 2     0      0     worker_thr 0000000000 S kworker/u9:2
root      17660 2     0      0     worker_thr 0000000000 S kworker/3:2
root      18289 2     0      0     worker_thr 0000000000 S kworker/1:3
root      19511 2     0      0     worker_thr 0000000000 S kworker/0:2
root      19786 2     0      0     worker_thr 0000000000 S kworker/1:0
root      19824 2     0      0     worker_thr 0000000000 S kworker/2:0
root      20180 2     0      0     worker_thr 0000000000 S kworker/u8:4
root      20485 2     0      0     worker_thr 0000000000 S kworker/u8:2
root      20542 2     0      0     worker_thr 0000000000 S kworker/0:1
root      20555 2     0      0     worker_thr 0000000000 S kworker/u8:3
root      20568 2     0      0     worker_thr 0000000000 S kworker/1:1
root      20592 2     0      0     worker_thr 0000000000 S kworker/u8:7
root      20677 2     0      0     worker_thr 0000000000 S kworker/3:1
u0_a149   20691 842   1649660 67472 SyS_epoll_ 0000000000 S com.google.android.apps.plus
u0_a198   20696 842   1261776 90128 SyS_epoll_ 0000000000 S com.soundcloud.android
root      20701 2     0      0     worker_thr 0000000000 S kworker/1:4
root      20744 2     0      0     worker_thr 0000000000 S kworker/2:1H
root      20817 2     0      0     worker_thr 0000000000 S kworker/0:0
root      20823 2     0      0     worker_thr 0000000000 S kworker/0:4
root      20859 2     0      0     worker_thr 0000000000 S kworker/2:1
root      20860 2     0      0     worker_thr 0000000000 S kworker/2:2
root      20890 2     0      0     worker_thr 0000000000 S kworker/0:3
root      20891 2     0      0     worker_thr 0000000000 S kworker/0:5
root      20905 2     0      0     usleep_ran 0000000000 D kworker/3:0
root      20913 2     0      0     worker_thr 0000000000 S kworker/1:2
root      20945 2     0      0     worker_thr 0000000000 S kworker/u8:0
root      20947 2     0      0     worker_thr 0000000000 S kworker/u8:9
root      20984 2     0      0     usleep_ran 0000000000 D kworker/3:3
root      21076 2     0      0     worker_thr 0000000000 S kworker/u8:10
root      21083 2     0      0     worker_thr 0000000000 S kworker/u8:11
root      21086 2     0      0     worker_thr 0000000000 S kworker/u8:12
root      21087 2     0      0     worker_thr 0000000000 S kworker/u8:13
root      21088 2     0      0     worker_thr 0000000000 S kworker/u8:14
root      21089 2     0      0     worker_thr 0000000000 S kworker/u8:15
root      21090 2     0      0     worker_thr 0000000000 S kworker/u8:16
root      21091 2     0      0     worker_thr 0000000000 S kworker/u8:17
root      21137 2     0      0     worker_thr 0000000000 S kworker/1:5
root      21138 2     0      0     worker_thr 0000000000 S kworker/1:6
root      21139 2     0      0     worker_thr 0000000000 S kworker/1:7
root      21156 2     0      0     worker_thr 0000000000 S kworker/u9:0
root      21265 2     0      0     worker_thr 0000000000 S kworker/u8:18
root      21417 2     0      0     worker_thr 0000000000 S kworker/0:6
root      21835 2     0      0     worker_thr 0000000000 S kworker/u9:1
u0_a161   21881 841   1657100 67820 SyS_epoll_ 0000000000 S mobi.societegenerale.mobile.lappli:Engagement
u0_a10    21955 841   1771372 88120 SyS_epoll_ 0000000000 S com.google.android.gms.unstable
u0_a53    22042 841   2400648 133640 SyS_epoll_ 0000000000 S com.google.android.talk
u0_a210   22055 841   1619164 53088 SyS_epoll_ 0000000000 S com.versobit.kmark.xhangouts
root      22414 2     0      0     worker_thr 0000000000 S kworker/2:3
root      22415 2     0      0     worker_thr 0000000000 S kworker/2:4
root      22416 2     0      0     worker_thr 0000000000 S kworker/2:5
u0_a214   22452 841   1645996 63924 SyS_epoll_ 0000000000 S tw.fatminmin.xposed.minminguard
u0_a190   22724 842   1165436 101076 SyS_epoll_ 0000000000 S com.accuweather.android
root      22921 2     0      0     mdss_mdp_c 0000000000 D mdss_fb0
u0_a181   23016 842   1093436 58264 SyS_epoll_ 0000000000 S com.facebook.katana:videoplayer
u0_a83    23075 841   2457420 132700 SyS_epoll_ 0000000000 S com.google.android.youtube
u0_a20    23199 841   1902076 189420 SyS_epoll_ 0000000000 S com.android.vending
root      23429 2     0      0     worker_thr 0000000000 S kworker/3:4
u0_a271   23482 842   1100640 67836 SyS_epoll_ 0000000000 S com.cleanmaster.security.stubborntrjkiller
u0_a271   23501 842   1071528 50708 SyS_epoll_ 0000000000 S com.cleanmaster.security.stubborntrjkiller:DefendService
u0_a14    23609 841   1622156 54448 SyS_epoll_ 0000000000 S com.google.android.partnersetup
u0_a16    23623 841   1619600 53596 SyS_epoll_ 0000000000 S com.android.musicfx
u0_a45    23638 841   1810884 86844 SyS_epoll_ 0000000000 S com.google.android.apps.docs
u0_a283   23720 842   1670152 112548 SyS_epoll_ 0000000000 S org.malwarebytes.antimalware
u0_a271   23766 23482 6004   1264           0 7fb7d97e3c R ps
root      25091 2     0      0     irq_thread 0000000000 S irq/229-arm-smm
root      25143 2     0      0     irq_thread 0000000000 S irq/191-arm-smm
root      25144 2     0      0     irq_thread 0000000000 S irq/192-arm-smm
root      29631 2     0      0     worker_thr 0000000000 S kworker/1:0H
u0_a207   31223 842   1702032 52392 SyS_epoll_ 0000000000 S com.facebook.orca:videoplayer
root      31489 2     0      0     worker_thr 0000000000 S kworker/3:2H
